Microbiome-TNC
…
# Summarize the most abundant taxa, filter to only include taxa with > 1% abundance
all <- phylumabundance %>%
  select(Phylum, Method, Abundance, Time) %>%
  group_by(Phylum, Method, Time) %>%
  summarize(
    avg_abundance = mean(Abundance)
  ) %>%
  filter(avg_abundance > 0.1)

## `summarise()` has grouped output by 'Phylum', 'Method'. You can override using the `.groups` argument.

all

## # A tibble: 92 x 4
## # Groups:   Phylum, Method [26]
##    Phylum       Method     Time  avg_abundance
##    <chr>        <chr>      <chr>         <dbl>
##  1 Bacteroidota blank      12h           0.417
##  2 Bacteroidota blank      24h           0.204
##  3 Bacteroidota blank      48h           0.382
##  4 Bacteroidota blank      72h           0.393
##  5 Bacteroidota Corn-fiber 12h           0.463
##  6 Bacteroidota Corn-fiber 24h           0.485
##  7 Bacteroidota Corn-fiber 48h           0.359
##  8 Bacteroidota Corn-fiber 72h           0.534
##  9 Bacteroidota DDR-NaHCO3 24h           0.612
## 10 Bacteroidota DDR-NaHCO3 48h           0.372
## # … with 82 more rows
…
# Summarize the most abundant taxa, filter to only include taxa with > 1% abundance
all <- classabundance %>%
  select(Class, Method, Abundance, Time) %>%
  group_by(Class, Method, Time) %>%
  summarize(
    avg_abundance = mean(Abundance)
  ) %>%
  filter(avg_abundance > 0.1)

## `summarise()` has grouped output by 'Class', 'Method'. You can override using the `.groups` argument.

all

## # A tibble: 94 x 4
## # Groups:   Class, Method [29]
##    Class       Method     Time  avg_abundance
##    <chr>       <chr>      <chr>         <dbl>
##  1 Bacilli     Inulin     12h           0.320
##  2 Bacteroidia blank      12h           0.417
##  3 Bacteroidia blank      24h           0.204
##  4 Bacteroidia blank      48h           0.382
##  5 Bacteroidia blank      72h           0.393
##  6 Bacteroidia Corn-fiber 12h           0.463
##  7 Bacteroidia Corn-fiber 24h           0.485
##  8 Bacteroidia Corn-fiber 48h           0.359
##  9 Bacteroidia Corn-fiber 72h           0.534
## 10 Bacteroidia DDR-NaHCO3 24h           0.612
## # … with 84 more rows
…
# Summarize the most abundant taxa, filter to only include taxa with > 1% abundance
all <- orderabundance %>%
  select(Order, Method, Abundance, Time) %>%
  group_by(Order, Method, Time) %>%
  summarize(
    avg_abundance = mean(Abundance)
  ) %>%
  filter(avg_abundance > 0.1)

## `summarise()` has grouped output by 'Order', 'Method'. You can override using the `.groups` argument.

all

## # A tibble: 91 x 4
## # Groups:   Order, Method [29]
##    Order         Method     Time  avg_abundance
##    <chr>         <chr>      <chr>         <dbl>
##  1 Bacteroidales blank      12h           0.417
##  2 Bacteroidales blank      24h           0.204
##  3 Bacteroidales blank      48h           0.382
##  4 Bacteroidales blank      72h           0.393
##  5 Bacteroidales Corn-fiber 12h           0.463
##  6 Bacteroidales Corn-fiber 24h           0.485
##  7 Bacteroidales Corn-fiber 48h           0.359
##  8 Bacteroidales Corn-fiber 72h           0.534
##  9 Bacteroidales DDR-NaHCO3 24h           0.612
## 10 Bacteroidales DDR-NaHCO3 48h           0.372
## # … with 81 more rows
…
# Summarize the most abundant taxa, filter to only include taxa with > 1% abundance
all <- familyabundance %>%
  select(Family, Method, Abundance, Time) %>%
  group_by(Family, Method, Time) %>%
  summarize(
    avg_abundance = mean(Abundance)
  ) %>%
  filter(avg_abundance > 0.1)

## `summarise()` has grouped output by 'Family', 'Method'. You can override using the `.groups` argument.

all

## # A tibble: 90 x 4
## # Groups:   Family, Method [28]
##    Family         Method     Time  avg_abundance
##    <chr>          <chr>      <chr>         <dbl>
##  1 Clostridiaceae blank      12h           0.343
##  2 Clostridiaceae blank      24h           0.505
##  3 Clostridiaceae blank      48h           0.168
##  4 Clostridiaceae blank      72h           0.112
##  5 Clostridiaceae Corn-fiber 12h           0.168
##  6 Clostridiaceae Corn-fiber 24h           0.228
##  7 Clostridiaceae Corn-fiber 48h           0.286
##  8 Clostridiaceae Corn-fiber 72h           0.262
##  9 Clostridiaceae DDR-NaHCO3 12h           0.524
## 10 Clostridiaceae DDR-NaHCO3 24h           0.165
## # … with 80 more rows
…
# Summarize the most abundant taxa, filter to only include taxa with > 1% abundance
all <- genusabundance %>%
  select(Genus, Method, Abundance, Time) %>%
  group_by(Genus, Method, Time) %>%
  summarize(
    avg_abundance = mean(Abundance)
  ) %>%
  filter(avg_abundance > 0.1)

## `summarise()` has grouped output by 'Genus', 'Method'. You can override using the `.groups` argument.

all

## # A tibble: 63 x 4
## # Groups:   Genus, Method [27]
##    Genus                       Method     Time  avg_abundance
##    <chr>                       <chr>      <chr>         <dbl>
##  1 Clostridium sensu stricto 1 blank      12h           0.278
##  2 Clostridium sensu stricto 1 blank      24h           0.417
##  3 Clostridium sensu stricto 1 blank      48h           0.159
##  4 Clostridium sensu stricto 1 blank      72h           0.107
##  5 Clostridium sensu stricto 1 Corn-fiber 12h           0.139
##  6 Clostridium sensu stricto 1 Corn-fiber 24h           0.180
##  7 Clostridium sensu stricto 1 Corn-fiber 48h           0.175
##  8 Clostridium sensu stricto 1 Corn-fiber 72h           0.248
##  9 Clostridium sensu stricto 1 DDR-NaHCO3 12h           0.447
## 10 Clostridium sensu stricto 1 DDR-NaHCO3 24h           0.150
## # … with 53 more rows
…
